…
#> Number of cells: 461 
#> Grid reference system: eqdgc 
#> Coordinate range:
#>   xmin   xmax   ymin   ymax 
#>   8.00  31.75 -35.00 -22.75 
#> 
#> Total number of observations: 19431 
#> Number of species represented: 36 
#> Number of families represented: 1 
#> 
#> Kingdoms represented: Plantae 
#> 
#> First 10 rows of data (use n = to show more):
#> 
#> # A tibble: 3,604 × 11
#>     year cellCode  taxonKey scientificName      obs kingdom family  
#>    <dbl> <chr>        <dbl> <chr>             <dbl> <chr>   <chr>   
#>  1  2010 E018S32AD  2980425 Acacia cyclops        1 Plantae Fabaceae
#>  2  2010 E018S33CD  2979793 Acacia viscidula      1 Plantae Fabaceae
#>  3  2010 E018S33CD  2980425 Acacia cyclops        1 Plantae Fabaceae
#>  4  2010 E018S34AB  2978369 Acacia ulicifolia     1 Plantae Fabaceae
#>  5  2010 E018S34AB  2978604 Acacia pycnantha      1 Plantae Fabaceae
#>  6  2010 E018S34AB  2978552 Acacia saligna        6 Plantae Fabaceae
#>  7  2010 E018S34AB  2979232 Acacia implexa        4 Plantae Fabaceae
#>  8  2010 E019S34AA  2978604 Acacia pycnantha      1 Plantae Fabaceae
#>  9  2010 E020S33DC  2979775 Acacia mearnsii       3 Plantae Fabaceae
#> 10  2010 E029S30DD  2979775 Acacia mearnsii       2 Plantae Fabaceae
#> # ℹ 3,594 more rows
#> # ℹ 4 more variables: minCoordinateUncertaintyInMeters <dbl>, xcoord <dbl>,
#> #   ycoord <dbl>, resolution <chr>
```
…
