…
# print impact indicator
print(impact_value)
#> Overall impact indicator
#> 
#> Method: mean_cum 
#> 
#> Number of cells: 409 
#> 
#> Number of species: 10 
#> 
#> 
#> First 10 rows of data (use n = to show more):
#> 
#> # A tibble: 15 × 2
#>     year diversity_val
#>    <dbl>         <dbl>
#>  1  2010        0.0354
#>  2  2011        0.0518
#>  3  2012        0.197 
#>  4  2013        0.279 
#>  5  2014        0.374 
#>  6  2015        0.354 
#>  7  2016        0.359 
#>  8  2017        0.415 
#>  9  2018        0.459 
#> 10  2019        1.16  
#> # ℹ 5 more rows
```
