…
#> Number of cells: 385 
#> Grid reference system: custom 
#> Coordinate range:
#>      xmin      xmax      ymin      ymax 
#>  16.60833  31.35833 -34.69700 -22.94701 
#> 
#> Total number of observations: 5663 
#> Number of species represented: 28 
#> Number of families represented: Data not present 
#> 
#> Kingdoms represented: Data not present 
#> 
#> First 10 rows of data (use n = to show more):
#> 
#> # A tibble: 5,663 × 8
#>    scientificName   taxonKey minCoordinateUncerta…¹  year cellCode xcoord ycoord
#>    <chr>               <dbl>                  <dbl> <dbl> <chr>     <dbl>  <dbl>
#>  1 Acacia mearnsii   2979775                      8  2010 1376       30.4  -29.7
#>  2 Acacia saligna    2978552                      1  2010 206        18.4  -33.9
#>  3 Acacia implexa    2979232                      1  2010 206        18.4  -33.9
#>  4 Acacia pycnantha  2978604                      1  2010 206        18.4  -33.9
#>  5 Acacia cyclops    2980425                    122  2010 668        18.4  -32.2
#>  6 Acacia mearnsii   2979775                   1100  2010 1110       29.9  -30.7
#>  7 Acacia mearnsii   2979775                      1  2010 215        20.6  -33.9
#>  8 Acacia mearnsii   2979775                    110  2010 215        20.6  -33.9
#>  9 Acacia pycnantha  2978604                   1100  2010 143        19.1  -34.2
#> 10 Acacia saligna    2978552                      1  2011 206        18.4  -33.9
#> # ℹ 5,653 more rows
#> # ℹ abbreviated name: ¹​minCoordinateUncertaintyInMeters
#> # ℹ 1 more variable: obs <dbl>
```
…
#> Number of cells: 265 
#> Grid reference system: eqdgc 
#> Coordinate range:
#>  xmin  xmax  ymin  ymax 
#>  3.25 15.25 54.25 58.25 
#> 
#> Total number of observations: 191676 
#> Number of species represented: 97 
#> Number of families represented: 31 
#> 
#> Kingdoms represented: Animalia 
#> 
#> First 10 rows of data (use n = to show more):
#> 
#> # A tibble: 28,155 × 15
#>     year cellCode  kingdomKey kingdom  familyKey family  taxonKey scientificName
#>    <dbl> <chr>          <dbl> <chr>        <dbl> <chr>      <dbl> <chr>         
#>  1  2000 E006N56DB          1 Animalia      9680 Odoben…  5218819 Odobenus rosm…
#>  2  2000 E008N54BA          1 Animalia      5310 Phocid…  2434793 Phoca vitulina
#>  3  2000 E008N55AA          1 Animalia      5310 Phocid…  2434793 Phoca vitulina
#>  4  2000 E008N55AB          1 Animalia      5307 Mustel…  2433753 Lutra lutra   
#>  5  2000 E008N55AB          1 Animalia      5510 Muridae  7429082 Mus musculus  
#>  6  2000 E008N55AC          1 Animalia      5307 Mustel…  2433753 Lutra lutra   
#>  7  2000 E008N55AC          1 Animalia      5310 Phocid…  2434793 Phoca vitulina
#>  8  2000 E008N55AC          1 Animalia      5310 Phocid…  2434806 Halichoerus g…
#>  9  2000 E008N55AC          1 Animalia      9701 Canidae  5219243 Vulpes vulpes 
#> 10  2000 E008N55AC          1 Animalia      9379 Lepori…  7952072 Lepus europae…
#> # ℹ 28,145 more rows
#> # ℹ 7 more variables: obs <dbl>, minCoordinateUncertaintyInMeters <dbl>,
#> #   minTemporalUncertainty <dbl>, familyCount <dbl>, xcoord <dbl>,
#> #   ycoord <dbl>, resolution <chr>
```
