Prepare_data • impIndicator
…
#> Date Range: 2010 - 2023 
#> Number of cells: 354 
#> Grid reference system: custom 
#> Coordinate range:
#> [1] "Coordinates not provided"
#> 
#> Total number of observations: 5123 
#> Number of species represented: 25 
#> Number of families represented: Data not present 
#> 
#> Kingdoms represented: Data not present 
#> 
#> First 10 rows of data (use n = to show more):
#> 
#> # A tibble: 5,123 × 6
#>    scientificName   taxonKey minCoordinateUncertaintyInMe…¹  year cellCode   obs
#>    <chr>               <dbl>                          <dbl> <dbl>    <int> <dbl>
#>  1 Acacia implexa    2979232                              1  2010      206     1
#>  2 Acacia cyclops    2980425                            122  2010      668     1
#>  3 Acacia saligna    2978552                              1  2010      206     1
#>  4 Acacia pycnantha  2978604                              1  2010      206     1
#>  5 Acacia mearnsii   2979775                            110  2010      215     1
#>  6 Acacia mearnsii   2979775                              1  2010      215     1
#>  7 Acacia mearnsii   2979775                              8  2010     1376     1
#>  8 Acacia saligna    2978552                              1  2011      206     1
#>  9 Acacia saligna    2978552                             15  2011     1312     1
#> 10 Acacia mearnsii   2979775                              1  2011      230     1
#> # ℹ 5,113 more rows
#> # ℹ abbreviated name: ¹​minCoordinateUncertaintyInMeters
…
